%YAML 1.1
%TAG !u! tag:unity3d.com,2011:
--- !u!114 &11400000
MonoBehaviour:
  m_ObjectHideFlags: 0
  m_CorrespondingSourceObject: {fileID: 0}
  m_PrefabInstance: {fileID: 0}
  m_PrefabAsset: {fileID: 0}
  m_GameObject: {fileID: 0}
  m_Enabled: 1
  m_EditorHideFlags: 0
  m_Script: {fileID: 11500000, guid: e2d8ddf4ddb54b08b9a5e94fd4fedcdd, type: 3}
  m_Name: EnemyData
  m_EditorClassIdentifier: 
  enemyInfo:
  - name: Turret
    health: 5
    speed: 0
    prefab: {fileID: 3376646216970570069, guid: 4b19bd3953d444830a85f7f3ba2dd795,
      type: 3}
    ai: {fileID: 11400000, guid: 6f3a61d1f98604ea9ae01cbe2abfb76b, type: 2}
  - name: Tramp
    health: 3
    speed: 2
    prefab: {fileID: 3376646216970570069, guid: 5684188d012e646cf9a62cac164ebbe5,
      type: 3}
    ai: {fileID: 11400000, guid: a769a3b17efd84d40a1e79814a260fc6, type: 2}
