%YAML 1.1
%TAG !u! tag:unity3d.com,2011:
--- !u!114 &11400000
MonoBehaviour:
  m_ObjectHideFlags: 0
  m_CorrespondingSourceObject: {fileID: 0}
  m_PrefabInstance: {fileID: 0}
  m_PrefabAsset: {fileID: 0}
  m_GameObject: {fileID: 0}
  m_Enabled: 1
  m_EditorHideFlags: 0
  m_Script: {fileID: 11500000, guid: ba96d9aa299f4c25a343a6662fdb8a82, type: 3}
  m_Name: GameData
  m_EditorClassIdentifier: 
  coinPrefab: {fileID: 8496461135272966406, guid: 2cf0f140a5a5749f4ace6989a87fb2b0,
    type: 3}
